{
    "schema" : "https://gitlab.com/gitlab-org/security-products/security-report-schemas/-/raw/v14.0.0/dist/sast-report-format.json",
    "version" : "15.0.0",
    "scan" : {
      "start_time" : "2020-08-24T07:30:25",
      "end_time" : "2020-08-24T07:54:47",
      "status" : "success",
      "type" : "sast",
      "scanner" : {
        "id" : "minac",
        "name" : "Minac manual scanner",
        "url" : "https://gitlab.com/minac",
        "version" : "0.0.1",
        "vendor" : {
          "name" : "Minac"
        }
      },
      "analyzer": {
        "id": "minac",
        "name": "Minac manual analyzer",
        "version": "0.0.1",
        "vendor": {
          "name": "Minac"
        }
      }
    },
    "vulnerabilities": [
      {
        "message" : "Test vulnerability 1",
        "category" : "sast",
        "description" : "Test vulnerability description",
        "id" : "d1b90d3d-607b-4b92-a68a-552f7ba83deb",
        "cve": "d1b90d3d-607b-4b92-a68a-552f7ba83deb",
        "severity" : "Critical",
        "identifiers" : [
          {
            "name" : "Test OWASP identifier A1:2017-Injection",
            "type" : "owasp",
            "value" : "A1:2017-Injection"
          }
        ],
        "location" : {
          "file" : "README.md",
          "start_line" : 1
        },
        "scanner" : {
          "id" : "minac",
          "name" : "Minac"
        },
        "solution" : "No solution"
      },
      {
        "message" : "Test vulnerability 2",
        "category" : "sast",
        "description" : "Test vulnerability description",
        "id" : "0e0de18b-da4d-4b27-ad14-fb396cccc950",
        "cve": "d1b90d3d-607b-4b92-a68a-552f7ba83deb",
        "severity" : "Low",
        "identifiers" : [
          {
            "name" : "Test OWASP identifier A2:2017-Broken Authentication",
            "type" : "owasp",
            "value" : "A2:2017-Broken Authentication"
          }
        ],
        "location" : {
          "file" : "README.md",
          "start_line" : 2
        },
        "scanner" : {
          "id" : "minac",
          "name" : "Minac"
        },
        "solution" : "No solution"
      },
      {
        "message" : "Test vulnerability 3",
        "category" : "sast",
        "description" : "Test vulnerability description",
        "id" : "593c7d56-21b4-4b86-90c4-7bcfa7c133c1",
        "cve": "d1b90d3d-607b-4b92-a68a-552f7ba83deb",
        "severity" : "Low",
        "identifiers" : [
          {
            "name" : "Test OWASP identifier A3:2017-Sensitive Data Exposure",
            "type" : "owasp",
            "value" : "A3:2017-Sensitive Data Exposure"
          }
        ],
        "location" : {
          "file" : "README.md",
          "start_line" : 3
        },
        "scanner" : {
          "id" : "minac",
          "name" : "Minac"
        },
        "solution" : "No solution"
      },
      {
        "message" : "Test vulnerability 4",
        "category" : "sast",
        "description" : "Test vulnerability description",
        "id" : "35161f14-acaa-425a-b738-c2f4b4261796",
        "cve": "d1b90d3d-607b-4b92-a68a-552f7ba83deb",
        "severity" : "Low",
        "identifiers" : [
          {
            "name" : "Test OWASP identifier A4:2017-XML External Entities (XXE)",
            "type" : "owasp",
            "value" : "A4:2017-XML External Entities (XXE)"
          }
        ],
        "location" : {
          "file" : "README.md",
          "start_line" : 4
        },
        "scanner" : {
          "id" : "minac",
          "name" : "Minac"
        },
        "solution" : "No solution"
      },
      {
        "message" : "Test vulnerability 5",
        "category" : "sast",
        "description" : "Test vulnerability description",
        "id" : "da4ffd7e-c7ad-4684-8adf-e6117dcafdde",
        "cve": "d1b90d3d-607b-4b92-a68a-552f7ba83deb",
        "severity" : "Low",
        "identifiers" : [
          {
            "name" : "Test OWASP identifier A5:2017-Broken Access Control",
            "type" : "owasp",
            "value" : "A5:2017-Broken Access Control"
          }
        ],
        "location" : {
          "file" : "README.md",
          "start_line" : 5
        },
        "scanner" : {
          "id" : "minac",
          "name" : "Minac"
        },
        "solution" : "No solution"
      },
      {
        "message" : "Test vulnerability 6 ",
        "category" : "sast",
        "description" : "Test vulnerability description ",
        "id" : "cca1e77b-8a6e-4763-8ca1-64f304c05eed",
        "cve": "d1b90d3d-607b-4b92-a68a-552f7ba83deb",
        "severity" : "Low",
        "identifiers" : [
          {
            "name" : "Test OWASP identifier A6:2017-Security Misconfiguration",
            "type" : "owasp",
            "value" : "A6:2017-Security Misconfiguration"
          }
        ],
        "location" : {
          "file" : "README.md",
          "start_line" : 6
        },
        "scanner" : {
          "id" : "minac",
          "name" : "Minac"
        },
        "solution" : "No solution"
      },
      {
        "message" : "Test vulnerability 7",
        "category" : "sast",
        "description" : "Test vulnerability description",
        "id" : "742469ec-29a1-4757-ad43-0fed8866756e",
        "cve": "d1b90d3d-607b-4b92-a68a-552f7ba83deb",
        "severity" : "Low",
        "identifiers" : [
          {
            "name" : "Test OWASP identifier A7:2017-Cross-Site Scripting (XSS)",
            "type" : "owasp",
            "value" : "A7:2017-Cross-Site Scripting (XSS)"
          }
        ],
        "location" : {
          "file" : "README.md",
          "start_line" : 7
        },
        "scanner" : {
          "id" : "minac",
          "name" : "Minac"
        },
        "solution" : "No solution"
      },
      {
        "message" : "Test vulnerability 8",
        "category" : "sast",
        "description" : "Test vulnerability description",
        "id" : "f3a8511f-322d-4f84-9288-f57d1e244c37",
        "cve": "d1b90d3d-607b-4b92-a68a-552f7ba83deb",
        "severity" : "Low",
        "identifiers" : [
          {
            "name" : "Test OWASP identifier A8:2017-Insecure Deserialization",
            "type" : "owasp",
            "value" : "A8:2017-Insecure Deserialization"
          }
        ],
        "location" : {
          "file" : "README.md",
          "start_line" : 8
        },
        "scanner" : {
          "id" : "minac",
          "name" : "Minac"
        },
        "solution" : "No solution"
      },
      {
        "message" : "Test vulnerability 9",
        "category" : "sast",
        "description" : "Test vulnerability description",
        "id" : "5c77f564-1f6f-4c7b-a7ea-eaca66ea122a",
        "cve": "d1b90d3d-607b-4b92-a68a-552f7ba83deb",
        "severity" : "Low",
        "identifiers" : [
          {
            "name" : "Test OWASP identifier A9:2017-Using Components with Known Vulnerabilities",
            "type" : "owasp",
            "value" : "A9:2017-Using Components with Known Vulnerabilities"
          }
        ],
        "location" : {
          "file" : "README.md",
          "start_line" : 9
        },
        "scanner" : {
          "id" : "minac",
          "name" : "Minac"
        },
        "solution" : "No solution"
      },
      {
        "message" : "Test vulnerability 10",
        "category" : "sast",
        "description" : "Test vulnerability description",
        "id" : "d32800ea-61b6-4da4-9d79-51dddcf5a48c",
        "cve": "d1b90d3d-607b-4b92-a68a-552f7ba83deb",
        "severity" : "Low",
        "identifiers" : [
          {
            "name" : "Test OWASP identifier A10:2017-Insufficient Logging & Monitoring",
            "type" : "owasp",
            "value" : "A10:2017-Insufficient Logging & Monitoring"
          }
        ],
        "location" : {
          "file" : "README.md",
          "start_line" : 10
        },
        "scanner" : {
          "id" : "minac",
          "name" : "Minac"
        },
        "solution" : "No solution"
      },
      {
        "message" : "Test vulnerability 11",
        "category" : "sast",
        "description" : "Test vulnerability description",
        "id" : "d5b60845-2611-42c7-ae93-26349ade07bc",
        "cve": "d1b90d3d-607b-4b92-a68a-552f7ba83deb",
        "severity" : "Low",
        "identifiers" : [
          {
            "name" : "Test OWASP identifier A1:2021-Broken Access Control",
            "type" : "owasp",
            "value" : "A1:2021-Broken Access Control"
          }
        ],
        "location" : {
          "file" : "README.md",
          "start_line" : 11
        },
        "scanner" : {
          "id" : "minac",
          "name" : "Minac"
        },
        "solution" : "No solution"
      },
      {
        "message" : "Test vulnerability 12",
        "category" : "sast",
        "description" : "Test vulnerability description",
        "id" : "f0f86283-1691-419f-9185-c014a59c8405",
        "cve": "d1b90d3d-607b-4b92-a68a-552f7ba83deb",
        "severity" : "Low",
        "identifiers" : [
          {
            "name" : "Test OWASP identifier A2:2021-Cryptographic Failures",
            "type" : "owasp",
            "value" : "A2:2021-Cryptographic Failures"
          }
        ],
        "location" : {
          "file" : "README.md",
          "start_line" : 12
        },
        "scanner" : {
          "id" : "minac",
          "name" : "Minac"
        },
        "solution" : "No solution"
      },
      {
        "message" : "Test vulnerability 13",
        "category" : "sast",
        "description" : "Test vulnerability description",
        "id" : "06b2e82a-172a-43b1-abe5-a7964cee140f",
        "cve": "d1b90d3d-607b-4b92-a68a-552f7ba83deb",
        "severity" : "Low",
        "identifiers" : [
          {
            "name" : "Test OWASP identifier A3:2021-Injection",
            "type" : "owasp",
            "value" : "A3:2021-Injection"
          }
        ],
        "location" : {
          "file" : "README.md",
          "start_line" : 13
        },
        "scanner" : {
          "id" : "minac",
          "name" : "Minac"
        },
        "solution" : "No solution"
      },
      {
        "message" : "Test vulnerability 14 ",
        "category" : "sast",
        "description" : "Test vulnerability description",
        "id" : "2b29abee-274b-458b-988a-9f4c011c351b",
        "cve": "d1b90d3d-607b-4b92-a68a-552f7ba83deb",
        "severity" : "Low",
        "identifiers" : [
          {
            "name" : "Test OWASP identifier A4:2021-Insecure Design",
            "type" : "owasp",
            "value" : "A4:2021-Insecure Design"
          }
        ],
        "location" : {
          "file" : "README.md",
          "start_line" : 14
        },
        "scanner" : {
          "id" : "minac",
          "name" : "Minac"
        },
        "solution" : "No solution"
      },
      {
        "message" : "Test vulnerability 15",
        "category" : "sast",
        "description" : "Test vulnerability description",
        "id" : "699631db-5094-4df5-bb37-1c4ed04bccd8",
        "cve": "d1b90d3d-607b-4b92-a68a-552f7ba83deb",
        "severity" : "Low",
        "identifiers" : [
          {
            "name" : "Test OWASP identifier A5:2021-Security Misconfiguration",
            "type" : "owasp",
            "value" : "A5:2021-Security Misconfiguration"
          }
        ],
        "location" : {
          "file" : "README.md",
          "start_line" : 15
        },
        "scanner" : {
          "id" : "minac",
          "name" : "Minac"
        },
        "solution" : "No solution"
      },
      {
        "message" : "Test vulnerability 16",
        "category" : "sast",
        "description" : "Test vulnerability description",
        "id" : "274dc83d-edec-4e67-b98d-ddf9629d449d",
        "cve": "d1b90d3d-607b-4b92-a68a-552f7ba83deb",
        "severity" : "Low",
        "identifiers" : [
          {
            "name" : "Test OWASP identifier A6:2021-Vulnerable and Outdated Components",
            "type" : "owasp",
            "value" : "A6:2021-Vulnerable and Outdated Components"
          }
        ],
        "location" : {
          "file" : "README.md",
          "start_line" : 16
        },
        "scanner" : {
          "id" : "minac",
          "name" : "Minac"
        },
        "solution" : "No solution"
      },
      {
        "message" : "Test vulnerability 17",
        "category" : "sast",
        "description" : "Test vulnerability description",
        "id" : "3e637110-a2d5-411f-9f34-039e06312e51",
        "cve": "d1b90d3d-607b-4b92-a68a-552f7ba83deb",
        "severity" : "Low",
        "identifiers" : [
          {
            "name" : "Test OWASP identifier A7:2021-Identification and Authentication Failures",
            "type" : "owasp",
            "value" : "A7:2021-Identification and Authentication Failures"
          }
        ],
        "location" : {
          "file" : "README.md",
          "start_line" : 17
        },
        "scanner" : {
          "id" : "minac",
          "name" : "Minac"
        },
        "solution" : "No solution"
      },
      {
        "message" : "Test vulnerability 18",
        "category" : "sast",
        "description" : "Test vulnerability description",
        "id" : "0a5f2e7e-60b1-42ed-a9ff-f0dd1f4c15de",
        "cve": "d1b90d3d-607b-4b92-a68a-552f7ba83deb",
        "severity" : "Low",
        "identifiers" : [
          {
            "name" : "Test OWASP identifier A8:2021-Software and Data Integrity Failures",
            "type" : "owasp",
            "value" : "A8:2021-Software and Data Integrity Failures"
          }
        ],
        "location" : {
          "file" : "README.md",
          "start_line" : 18
        },
        "scanner" : {
          "id" : "minac",
          "name" : "Minac"
        },
        "solution" : "No solution"
      },
      {
        "message" : "Test vulnerability 19",
        "category" : "sast",
        "description" : "Test vulnerability description",
        "id" : "9cdd598f-6f7b-4288-a12b-0ea067682046",
        "cve": "d1b90d3d-607b-4b92-a68a-552f7ba83deb",
        "severity" : "Low",
        "identifiers" : [
          {
            "name" : "Test OWASP identifier A9:2021-Security Logging and Monitoring Failures",
            "type" : "owasp",
            "value" : "A9:2021-Security Logging and Monitoring Failures"
          }
        ],
        "location" : {
          "file" : "README.md",
          "start_line" : 19
        },
        "scanner" : {
          "id" : "minac",
          "name" : "Minac"
        },
        "solution" : "No solution"
      },
      {
        "message" : "Test vulnerability 20",
        "category" : "sast",
        "description" : "Test vulnerability description",
        "id" : "80af32f7-3c73-4d1e-9c2c-d6da32c7010e",
        "cve": "d1b90d3d-607b-4b92-a68a-552f7ba83deb",
        "severity" : "Low",
        "identifiers" : [
          {
            "name" : "Test OWASP identifier A10:2021-Server-Side Request Forgery",
            "type" : "owasp",
            "value" : "A10:2021-Server-Side Request Forgery"
          }
        ],
        "location" : {
          "file" : "README.md",
          "start_line" : 20
        },
        "scanner" : {
          "id" : "minac",
          "name" : "Minac"
        },
        "solution" : "No solution"
      },
      {
        "message" : "Test vulnerability 21",
        "category" : "sast",
        "description" : "Test vulnerability description",
        "id" : "461abacb-cb2b-4d5d-9c0b-636b10bb7f59",
        "cve": "d1b90d3d-607b-4b92-a68a-552f7ba83deb",
        "severity" : "Low",
        "identifiers" : [
          {
            "name" : "Test CVE identifier",
            "type" : "CVE",
            "value" : "CVE-2023-XXXX"
          }
        ],
        "location" : {
          "file" : "README.md",
          "start_line" : 21
        },
        "scanner" : {
          "id" : "minac",
          "name" : "Minac"
        },
        "solution" : "No solution"
      }
    ],
    "remediations": [
      {
        "fixes": [
          {
            "id": "d1b90d3d-607b-4b92-a68a-552f7ba83deb",
            "cve": "d1b90d3d-607b-4b92-a68a-552f7ba83deb"
          }
        ],
        "summary": "Test diff",
        "diff": "ZGlmZiAtLWdpdCBhL1JFQURNRS5tZCBiL1JFQURNRS5tZAppbmRleCBlNTU3MjlmMTRiMzRkNmI1MjhmOTU1YmUwNjE3YmIxZGM4NDU2OTBlLi4xNjQ5M2MxNTlhNzA3YTRkMGM5MTBkYmI1YmU4NmYwZGY5MGU5NmFkIDEwMDY0NAotLS0gYS9SRUFETUUubWQKKysrIGIvUkVBRE1FLm1kCkBAIC0xLDIgKzEsMyBAQAogIyMjIFRlc3QgcmVtZWRpYXRpb25zCiAKK0lnbm9yZSB2dWxuZXJhYmlsaXR5IDEK"
      }
    ]
  }
  
